-- Merging decision tree log ---
manifest
ADDED from C:\Users\kaikhura\Documents\AndroidStudioProject\USBWorkspace\OfficeInformation\app\src\main\AndroidManifest.xml:2:1-26:12
INJECTED from C:\Users\kaikhura\Documents\AndroidStudioProject\USBWorkspace\OfficeInformation\app\src\main\AndroidManifest.xml:2:1-26:12
INJECTED from C:\Users\kaikhura\Documents\AndroidStudioProject\USBWorkspace\OfficeInformation\app\src\main\AndroidManifest.xml:2:1-26:12
INJECTED from C:\Users\kaikhura\Documents\AndroidStudioProject\USBWorkspace\OfficeInformation\app\src\main\AndroidManifest.xml:2:1-26:12
MERGED from [androidx.appcompat:appcompat:1.1.0] C:\Users\kaikhura\.gradle\caches\transforms-2\files-2.1\14bdbc67d7cf0d84f6203eb02873a515\appcompat-1.1.0\AndroidManifest.xml:17:1-24:12
MERGED from [androidx.constraintlayout:constraintlayout:1.1.3] C:\Users\kaikhura\.gradle\caches\transforms-2\files-2.1\396cc3001216f1d6c567dbc956f2e8d3\constraintlayout-1.1.3\AndroidManifest.xml:2:1-11:12
MERGED from [io.reactivex.rxjava2:rxandroid:2.1.1] C:\Users\kaikhura\.gradle\caches\transforms-2\files-2.1\ee8e1cda14bb1a860be57f78c1c644fe\jetified-rxandroid-2.1.1\AndroidManifest.xml:15:1-20:12
MERGED from [androidx.lifecycle:lifecycle-extensions:2.1.0] C:\Users\kaikhura\.gradle\caches\transforms-2\files-2.1\517753c6f707bf9ed8d5dbb1c77e9a57\lifecycle-extensions-2.1.0\AndroidManifest.xml:17:1-25:12
MERGED from [androidx.recyclerview:recyclerview:1.1.0] C:\Users\kaikhura\.gradle\caches\transforms-2\files-2.1\cf55dd41ab8dcf003784d63d699fc6b1\recyclerview-1.1.0\AndroidManifest.xml:17:1-24:12
MERGED from [com.github.bumptech.glide:glide:4.10.0] C:\Users\kaikhura\.gradle\caches\transforms-2\files-2.1\e6e1ff4891a3689d0dfc1af4df98e3f8\jetified-glide-4.10.0\AndroidManifest.xml:2:1-12:12
MERGED from [androidx.fragment:fragment:1.1.0] C:\Users\kaikhura\.gradle\caches\transforms-2\files-2.1\5e3cfd717effc695d8f39c36f7f80028\fragment-1.1.0\AndroidManifest.xml:17:1-24:12
MERGED from [androidx.appcompat:appcompat-resources:1.1.0] C:\Users\kaikhura\.gradle\caches\transforms-2\files-2.1\d671e23af145379eda10515d270913c3\jetified-appcompat-resources-1.1.0\AndroidManifest.xml:17:1-24:12
MERGED from [androidx.drawerlayout:drawerlayout:1.0.0] C:\Users\kaikhura\.gradle\caches\transforms-2\files-2.1\c58c66aa5e04455851f739694fef5af0\drawerlayout-1.0.0\AndroidManifest.xml:17:1-22:12
MERGED from [androidx.viewpager:viewpager:1.0.0] C:\Users\kaikhura\.gradle\caches\transforms-2\files-2.1\43341c868b769a842466277fe7e1155f\viewpager-1.0.0\AndroidManifest.xml:17:1-22:12
MERGED from [androidx.customview:customview:1.0.0] C:\Users\kaikhura\.gradle\caches\transforms-2\files-2.1\8b8af2beb691afdeaeac3e845345eabb\customview-1.0.0\AndroidManifest.xml:17:1-22:12
MERGED from [androidx.loader:loader:1.0.0] C:\Users\kaikhura\.gradle\caches\transforms-2\files-2.1\c5630adcadd57591f1eacea76d928f6e\loader-1.0.0\AndroidManifest.xml:17:1-22:12
MERGED from [androidx.activity:activity:1.0.0] C:\Users\kaikhura\.gradle\caches\transforms-2\files-2.1\dabc502d88cc71dcaf42c47398905241\jetified-activity-1.0.0\AndroidManifest.xml:17:1-24:12
MERGED from [androidx.vectordrawable:vectordrawable-animated:1.1.0] C:\Users\kaikhura\.gradle\caches\transforms-2\files-2.1\4f6bca52e558045d8f3a79ec1f0ab49a\vectordrawable-animated-1.1.0\AndroidManifest.xml:17:1-24:12
MERGED from [androidx.vectordrawable:vectordrawable:1.1.0] C:\Users\kaikhura\.gradle\caches\transforms-2\files-2.1\9b6a391a7510c84eb611761fcfd7cdc0\vectordrawable-1.1.0\AndroidManifest.xml:17:1-24:12
MERGED from [androidx.core:core:1.1.0] C:\Users\kaikhura\.gradle\caches\transforms-2\files-2.1\292864c6d50f98870bb1ff3a00144dd1\core-1.1.0\AndroidManifest.xml:17:1-26:12
MERGED from [androidx.lifecycle:lifecycle-process:2.1.0] C:\Users\kaikhura\.gradle\caches\transforms-2\files-2.1\2687764cb8beca2d25d664cf653cf902\jetified-lifecycle-process-2.1.0\AndroidManifest.xml:17:1-30:12
MERGED from [androidx.lifecycle:lifecycle-service:2.1.0] C:\Users\kaikhura\.gradle\caches\transforms-2\files-2.1\cf3c411e6080ce93b592497cf24b2be3\jetified-lifecycle-service-2.1.0\AndroidManifest.xml:17:1-22:12
MERGED from [androidx.lifecycle:lifecycle-runtime:2.1.0] C:\Users\kaikhura\.gradle\caches\transforms-2\files-2.1\4a8b344f4640b5fb622ff22962abb590\lifecycle-runtime-2.1.0\AndroidManifest.xml:17:1-22:12
MERGED from [androidx.cursoradapter:cursoradapter:1.0.0] C:\Users\kaikhura\.gradle\caches\transforms-2\files-2.1\c8422266eb3949fc392dde601037e6a9\cursoradapter-1.0.0\AndroidManifest.xml:17:1-22:12
MERGED from [androidx.lifecycle:lifecycle-livedata:2.1.0] C:\Users\kaikhura\.gradle\caches\transforms-2\files-2.1\d9f361a810ffb5c9e1e8a64c9a678246\lifecycle-livedata-2.1.0\AndroidManifest.xml:17:1-22:12
MERGED from [androidx.lifecycle:lifecycle-livedata-core:2.1.0] C:\Users\kaikhura\.gradle\caches\transforms-2\files-2.1\ee9809e4c795a1132d9d5129ea91b744\lifecycle-livedata-core-2.1.0\AndroidManifest.xml:17:1-22:12
MERGED from [androidx.arch.core:core-runtime:2.1.0] C:\Users\kaikhura\.gradle\caches\transforms-2\files-2.1\e84dba64fa174c1169b684852347e97d\core-runtime-2.1.0\AndroidManifest.xml:17:1-24:12
MERGED from [androidx.savedstate:savedstate:1.0.0] C:\Users\kaikhura\.gradle\caches\transforms-2\files-2.1\0a483328cf7c4d7674d6e1659f6a596f\jetified-savedstate-1.0.0\AndroidManifest.xml:17:1-24:12
MERGED from [androidx.lifecycle:lifecycle-viewmodel:2.1.0] C:\Users\kaikhura\.gradle\caches\transforms-2\files-2.1\d0dd3c88c3f503352b37d2e227c26252\lifecycle-viewmodel-2.1.0\AndroidManifest.xml:17:1-22:12
MERGED from [com.github.bumptech.glide:gifdecoder:4.10.0] C:\Users\kaikhura\.gradle\caches\transforms-2\files-2.1\cfff9cb6ddb439e7023a02a8daab7a04\jetified-gifdecoder-4.10.0\AndroidManifest.xml:2:1-11:12
MERGED from [androidx.versionedparcelable:versionedparcelable:1.1.0] C:\Users\kaikhura\.gradle\caches\transforms-2\files-2.1\4f3e7548f91a047ff570cd1e2d2855ce\versionedparcelable-1.1.0\AndroidManifest.xml:17:1-27:12
MERGED from [androidx.interpolator:interpolator:1.0.0] C:\Users\kaikhura\.gradle\caches\transforms-2\files-2.1\70b0769dfbc9a8d3ada87db0494132c4\interpolator-1.0.0\AndroidManifest.xml:17:1-22:12
INJECTED from C:\Users\kaikhura\Documents\AndroidStudioProject\USBWorkspace\OfficeInformation\app\src\main\AndroidManifest.xml:2:1-26:12
INJECTED from C:\Users\kaikhura\Documents\AndroidStudioProject\USBWorkspace\OfficeInformation\app\src\main\AndroidManifest.xml:2:1-26:12
INJECTED from C:\Users\kaikhura\Documents\AndroidStudioProject\USBWorkspace\OfficeInformation\app\src\main\AndroidManifest.xml:2:1-26:12
	package
		ADDED from C:\Users\kaikhura\Documents\AndroidStudioProject\USBWorkspace\OfficeInformation\app\src\main\AndroidManifest.xml:3:5-44
		INJECTED from C:\Users\kaikhura\Documents\AndroidStudioProject\USBWorkspace\OfficeInformation\app\src\main\AndroidManifest.xml
		INJECTED from C:\Users\kaikhura\Documents\AndroidStudioProject\USBWorkspace\OfficeInformation\app\src\main\AndroidManifest.xml
	android:versionName
		INJECTED from C:\Users\kaikhura\Documents\AndroidStudioProject\USBWorkspace\OfficeInformation\app\src\main\AndroidManifest.xml
		ADDED from C:\Users\kaikhura\Documents\AndroidStudioProject\USBWorkspace\OfficeInformation\app\src\main\AndroidManifest.xml:2:1-26:12
		INJECTED from C:\Users\kaikhura\Documents\AndroidStudioProject\USBWorkspace\OfficeInformation\app\src\main\AndroidManifest.xml
	android:versionCode
		INJECTED from C:\Users\kaikhura\Documents\AndroidStudioProject\USBWorkspace\OfficeInformation\app\src\main\AndroidManifest.xml
		ADDED from C:\Users\kaikhura\Documents\AndroidStudioProject\USBWorkspace\OfficeInformation\app\src\main\AndroidManifest.xml:2:1-26:12
		INJECTED from C:\Users\kaikhura\Documents\AndroidStudioProject\USBWorkspace\OfficeInformation\app\src\main\AndroidManifest.xml
	xmlns:android
		ADDED from C:\Users\kaikhura\Documents\AndroidStudioProject\USBWorkspace\OfficeInformation\app\src\main\AndroidManifest.xml:2:11-69
uses-permission#android.permission.INTERNET
ADDED from C:\Users\kaikhura\Documents\AndroidStudioProject\USBWorkspace\OfficeInformation\app\src\main\AndroidManifest.xml:5:5-67
	android:name
		ADDED from C:\Users\kaikhura\Documents\AndroidStudioProject\USBWorkspace\OfficeInformation\app\src\main\AndroidManifest.xml:5:22-64
application
ADDED from C:\Users\kaikhura\Documents\AndroidStudioProject\USBWorkspace\OfficeInformation\app\src\main\AndroidManifest.xml:7:5-24:19
MERGED from [androidx.constraintlayout:constraintlayout:1.1.3] C:\Users\kaikhura\.gradle\caches\transforms-2\files-2.1\396cc3001216f1d6c567dbc956f2e8d3\constraintlayout-1.1.3\AndroidManifest.xml:9:5-20
MERGED from [androidx.constraintlayout:constraintlayout:1.1.3] C:\Users\kaikhura\.gradle\caches\transforms-2\files-2.1\396cc3001216f1d6c567dbc956f2e8d3\constraintlayout-1.1.3\AndroidManifest.xml:9:5-20
MERGED from [androidx.lifecycle:lifecycle-extensions:2.1.0] C:\Users\kaikhura\.gradle\caches\transforms-2\files-2.1\517753c6f707bf9ed8d5dbb1c77e9a57\lifecycle-extensions-2.1.0\AndroidManifest.xml:22:5-23:19
MERGED from [androidx.lifecycle:lifecycle-extensions:2.1.0] C:\Users\kaikhura\.gradle\caches\transforms-2\files-2.1\517753c6f707bf9ed8d5dbb1c77e9a57\lifecycle-extensions-2.1.0\AndroidManifest.xml:22:5-23:19
MERGED from [com.github.bumptech.glide:glide:4.10.0] C:\Users\kaikhura\.gradle\caches\transforms-2\files-2.1\e6e1ff4891a3689d0dfc1af4df98e3f8\jetified-glide-4.10.0\AndroidManifest.xml:10:5-20
MERGED from [com.github.bumptech.glide:glide:4.10.0] C:\Users\kaikhura\.gradle\caches\transforms-2\files-2.1\e6e1ff4891a3689d0dfc1af4df98e3f8\jetified-glide-4.10.0\AndroidManifest.xml:10:5-20
MERGED from [androidx.core:core:1.1.0] C:\Users\kaikhura\.gradle\caches\transforms-2\files-2.1\292864c6d50f98870bb1ff3a00144dd1\core-1.1.0\AndroidManifest.xml:24:5-89
MERGED from [androidx.core:core:1.1.0] C:\Users\kaikhura\.gradle\caches\transforms-2\files-2.1\292864c6d50f98870bb1ff3a00144dd1\core-1.1.0\AndroidManifest.xml:24:5-89
MERGED from [androidx.lifecycle:lifecycle-process:2.1.0] C:\Users\kaikhura\.gradle\caches\transforms-2\files-2.1\2687764cb8beca2d25d664cf653cf902\jetified-lifecycle-process-2.1.0\AndroidManifest.xml:22:5-28:19
MERGED from [androidx.lifecycle:lifecycle-process:2.1.0] C:\Users\kaikhura\.gradle\caches\transforms-2\files-2.1\2687764cb8beca2d25d664cf653cf902\jetified-lifecycle-process-2.1.0\AndroidManifest.xml:22:5-28:19
MERGED from [com.github.bumptech.glide:gifdecoder:4.10.0] C:\Users\kaikhura\.gradle\caches\transforms-2\files-2.1\cfff9cb6ddb439e7023a02a8daab7a04\jetified-gifdecoder-4.10.0\AndroidManifest.xml:9:5-20
MERGED from [com.github.bumptech.glide:gifdecoder:4.10.0] C:\Users\kaikhura\.gradle\caches\transforms-2\files-2.1\cfff9cb6ddb439e7023a02a8daab7a04\jetified-gifdecoder-4.10.0\AndroidManifest.xml:9:5-20
MERGED from [androidx.versionedparcelable:versionedparcelable:1.1.0] C:\Users\kaikhura\.gradle\caches\transforms-2\files-2.1\4f3e7548f91a047ff570cd1e2d2855ce\versionedparcelable-1.1.0\AndroidManifest.xml:24:5-25:19
MERGED from [androidx.versionedparcelable:versionedparcelable:1.1.0] C:\Users\kaikhura\.gradle\caches\transforms-2\files-2.1\4f3e7548f91a047ff570cd1e2d2855ce\versionedparcelable-1.1.0\AndroidManifest.xml:24:5-25:19
	android:appComponentFactory
		ADDED from [androidx.core:core:1.1.0] C:\Users\kaikhura\.gradle\caches\transforms-2\files-2.1\292864c6d50f98870bb1ff3a00144dd1\core-1.1.0\AndroidManifest.xml:24:18-86
	android:supportsRtl
		ADDED from C:\Users\kaikhura\Documents\AndroidStudioProject\USBWorkspace\OfficeInformation\app\src\main\AndroidManifest.xml:12:9-35
	android:label
		ADDED from C:\Users\kaikhura\Documents\AndroidStudioProject\USBWorkspace\OfficeInformation\app\src\main\AndroidManifest.xml:10:9-41
	android:roundIcon
		ADDED from C:\Users\kaikhura\Documents\AndroidStudioProject\USBWorkspace\OfficeInformation\app\src\main\AndroidManifest.xml:11:9-54
	android:icon
		ADDED from C:\Users\kaikhura\Documents\AndroidStudioProject\USBWorkspace\OfficeInformation\app\src\main\AndroidManifest.xml:9:9-43
	android:allowBackup
		ADDED from C:\Users\kaikhura\Documents\AndroidStudioProject\USBWorkspace\OfficeInformation\app\src\main\AndroidManifest.xml:8:9-35
	android:theme
		ADDED from C:\Users\kaikhura\Documents\AndroidStudioProject\USBWorkspace\OfficeInformation\app\src\main\AndroidManifest.xml:13:9-40
activity#com.example.officeinformation.MemberInfo
ADDED from C:\Users\kaikhura\Documents\AndroidStudioProject\USBWorkspace\OfficeInformation\app\src\main\AndroidManifest.xml:14:9-16:20
	android:name
		ADDED from C:\Users\kaikhura\Documents\AndroidStudioProject\USBWorkspace\OfficeInformation\app\src\main\AndroidManifest.xml:14:19-45
activity#com.example.officeinformation.MainActivity
ADDED from C:\Users\kaikhura\Documents\AndroidStudioProject\USBWorkspace\OfficeInformation\app\src\main\AndroidManifest.xml:17:9-23:20
	android:name
		ADDED from C:\Users\kaikhura\Documents\AndroidStudioProject\USBWorkspace\OfficeInformation\app\src\main\AndroidManifest.xml:17:19-47
intent-filter#action:name:android.intent.action.MAIN+category:name:android.intent.category.LAUNCHER
ADDED from C:\Users\kaikhura\Documents\AndroidStudioProject\USBWorkspace\OfficeInformation\app\src\main\AndroidManifest.xml:18:13-22:29
action#android.intent.action.MAIN
ADDED from C:\Users\kaikhura\Documents\AndroidStudioProject\USBWorkspace\OfficeInformation\app\src\main\AndroidManifest.xml:19:17-69
	android:name
		ADDED from C:\Users\kaikhura\Documents\AndroidStudioProject\USBWorkspace\OfficeInformation\app\src\main\AndroidManifest.xml:19:25-66
category#android.intent.category.LAUNCHER
ADDED from C:\Users\kaikhura\Documents\AndroidStudioProject\USBWorkspace\OfficeInformation\app\src\main\AndroidManifest.xml:21:17-77
	android:name
		ADDED from C:\Users\kaikhura\Documents\AndroidStudioProject\USBWorkspace\OfficeInformation\app\src\main\AndroidManifest.xml:21:27-74
uses-sdk
INJECTED from C:\Users\kaikhura\Documents\AndroidStudioProject\USBWorkspace\OfficeInformation\app\src\main\AndroidManifest.xml reason: use-sdk injection requested
INJECTED from C:\Users\kaikhura\Documents\AndroidStudioProject\USBWorkspace\OfficeInformation\app\src\main\AndroidManifest.xml
INJECTED from C:\Users\kaikhura\Documents\AndroidStudioProject\USBWorkspace\OfficeInformation\app\src\main\AndroidManifest.xml
MERGED from [androidx.appcompat:appcompat:1.1.0] C:\Users\kaikhura\.gradle\caches\transforms-2\files-2.1\14bdbc67d7cf0d84f6203eb02873a515\appcompat-1.1.0\AndroidManifest.xml:20:5-22:41
MERGED from [androidx.appcompat:appcompat:1.1.0] C:\Users\kaikhura\.gradle\caches\transforms-2\files-2.1\14bdbc67d7cf0d84f6203eb02873a515\appcompat-1.1.0\AndroidManifest.xml:20:5-22:41
MERGED from [androidx.constraintlayout:constraintlayout:1.1.3] C:\Users\kaikhura\.gradle\caches\transforms-2\files-2.1\396cc3001216f1d6c567dbc956f2e8d3\constraintlayout-1.1.3\AndroidManifest.xml:5:5-7:41
MERGED from [androidx.constraintlayout:constraintlayout:1.1.3] C:\Users\kaikhura\.gradle\caches\transforms-2\files-2.1\396cc3001216f1d6c567dbc956f2e8d3\constraintlayout-1.1.3\AndroidManifest.xml:5:5-7:41
MERGED from [io.reactivex.rxjava2:rxandroid:2.1.1] C:\Users\kaikhura\.gradle\caches\transforms-2\files-2.1\ee8e1cda14bb1a860be57f78c1c644fe\jetified-rxandroid-2.1.1\AndroidManifest.xml:18:5-43
MERGED from [io.reactivex.rxjava2:rxandroid:2.1.1] C:\Users\kaikhura\.gradle\caches\transforms-2\files-2.1\ee8e1cda14bb1a860be57f78c1c644fe\jetified-rxandroid-2.1.1\AndroidManifest.xml:18:5-43
MERGED from [androidx.lifecycle:lifecycle-extensions:2.1.0] C:\Users\kaikhura\.gradle\caches\transforms-2\files-2.1\517753c6f707bf9ed8d5dbb1c77e9a57\lifecycle-extensions-2.1.0\AndroidManifest.xml:20:5-44
MERGED from [androidx.lifecycle:lifecycle-extensions:2.1.0] C:\Users\kaikhura\.gradle\caches\transforms-2\files-2.1\517753c6f707bf9ed8d5dbb1c77e9a57\lifecycle-extensions-2.1.0\AndroidManifest.xml:20:5-44
MERGED from [androidx.recyclerview:recyclerview:1.1.0] C:\Users\kaikhura\.gradle\caches\transforms-2\files-2.1\cf55dd41ab8dcf003784d63d699fc6b1\recyclerview-1.1.0\AndroidManifest.xml:20:5-22:41
MERGED from [androidx.recyclerview:recyclerview:1.1.0] C:\Users\kaikhura\.gradle\caches\transforms-2\files-2.1\cf55dd41ab8dcf003784d63d699fc6b1\recyclerview-1.1.0\AndroidManifest.xml:20:5-22:41
MERGED from [com.github.bumptech.glide:glide:4.10.0] C:\Users\kaikhura\.gradle\caches\transforms-2\files-2.1\e6e1ff4891a3689d0dfc1af4df98e3f8\jetified-glide-4.10.0\AndroidManifest.xml:6:5-8:41
MERGED from [com.github.bumptech.glide:glide:4.10.0] C:\Users\kaikhura\.gradle\caches\transforms-2\files-2.1\e6e1ff4891a3689d0dfc1af4df98e3f8\jetified-glide-4.10.0\AndroidManifest.xml:6:5-8:41
MERGED from [androidx.fragment:fragment:1.1.0] C:\Users\kaikhura\.gradle\caches\transforms-2\files-2.1\5e3cfd717effc695d8f39c36f7f80028\fragment-1.1.0\AndroidManifest.xml:20:5-22:41
MERGED from [androidx.fragment:fragment:1.1.0] C:\Users\kaikhura\.gradle\caches\transforms-2\files-2.1\5e3cfd717effc695d8f39c36f7f80028\fragment-1.1.0\AndroidManifest.xml:20:5-22:41
MERGED from [androidx.appcompat:appcompat-resources:1.1.0] C:\Users\kaikhura\.gradle\caches\transforms-2\files-2.1\d671e23af145379eda10515d270913c3\jetified-appcompat-resources-1.1.0\AndroidManifest.xml:20:5-22:41
MERGED from [androidx.appcompat:appcompat-resources:1.1.0] C:\Users\kaikhura\.gradle\caches\transforms-2\files-2.1\d671e23af145379eda10515d270913c3\jetified-appcompat-resources-1.1.0\AndroidManifest.xml:20:5-22:41
MERGED from [androidx.drawerlayout:drawerlayout:1.0.0] C:\Users\kaikhura\.gradle\caches\transforms-2\files-2.1\c58c66aa5e04455851f739694fef5af0\drawerlayout-1.0.0\AndroidManifest.xml:20:5-44
MERGED from [androidx.drawerlayout:drawerlayout:1.0.0] C:\Users\kaikhura\.gradle\caches\transforms-2\files-2.1\c58c66aa5e04455851f739694fef5af0\drawerlayout-1.0.0\AndroidManifest.xml:20:5-44
MERGED from [androidx.viewpager:viewpager:1.0.0] C:\Users\kaikhura\.gradle\caches\transforms-2\files-2.1\43341c868b769a842466277fe7e1155f\viewpager-1.0.0\AndroidManifest.xml:20:5-44
MERGED from [androidx.viewpager:viewpager:1.0.0] C:\Users\kaikhura\.gradle\caches\transforms-2\files-2.1\43341c868b769a842466277fe7e1155f\viewpager-1.0.0\AndroidManifest.xml:20:5-44
MERGED from [androidx.customview:customview:1.0.0] C:\Users\kaikhura\.gradle\caches\transforms-2\files-2.1\8b8af2beb691afdeaeac3e845345eabb\customview-1.0.0\AndroidManifest.xml:20:5-44
MERGED from [androidx.customview:customview:1.0.0] C:\Users\kaikhura\.gradle\caches\transforms-2\files-2.1\8b8af2beb691afdeaeac3e845345eabb\customview-1.0.0\AndroidManifest.xml:20:5-44
MERGED from [androidx.loader:loader:1.0.0] C:\Users\kaikhura\.gradle\caches\transforms-2\files-2.1\c5630adcadd57591f1eacea76d928f6e\loader-1.0.0\AndroidManifest.xml:20:5-44
MERGED from [androidx.loader:loader:1.0.0] C:\Users\kaikhura\.gradle\caches\transforms-2\files-2.1\c5630adcadd57591f1eacea76d928f6e\loader-1.0.0\AndroidManifest.xml:20:5-44
MERGED from [androidx.activity:activity:1.0.0] C:\Users\kaikhura\.gradle\caches\transforms-2\files-2.1\dabc502d88cc71dcaf42c47398905241\jetified-activity-1.0.0\AndroidManifest.xml:20:5-22:41
MERGED from [androidx.activity:activity:1.0.0] C:\Users\kaikhura\.gradle\caches\transforms-2\files-2.1\dabc502d88cc71dcaf42c47398905241\jetified-activity-1.0.0\AndroidManifest.xml:20:5-22:41
MERGED from [androidx.vectordrawable:vectordrawable-animated:1.1.0] C:\Users\kaikhura\.gradle\caches\transforms-2\files-2.1\4f6bca52e558045d8f3a79ec1f0ab49a\vectordrawable-animated-1.1.0\AndroidManifest.xml:20:5-22:41
MERGED from [androidx.vectordrawable:vectordrawable-animated:1.1.0] C:\Users\kaikhura\.gradle\caches\transforms-2\files-2.1\4f6bca52e558045d8f3a79ec1f0ab49a\vectordrawable-animated-1.1.0\AndroidManifest.xml:20:5-22:41
MERGED from [androidx.vectordrawable:vectordrawable:1.1.0] C:\Users\kaikhura\.gradle\caches\transforms-2\files-2.1\9b6a391a7510c84eb611761fcfd7cdc0\vectordrawable-1.1.0\AndroidManifest.xml:20:5-22:41
MERGED from [androidx.vectordrawable:vectordrawable:1.1.0] C:\Users\kaikhura\.gradle\caches\transforms-2\files-2.1\9b6a391a7510c84eb611761fcfd7cdc0\vectordrawable-1.1.0\AndroidManifest.xml:20:5-22:41
MERGED from [androidx.core:core:1.1.0] C:\Users\kaikhura\.gradle\caches\transforms-2\files-2.1\292864c6d50f98870bb1ff3a00144dd1\core-1.1.0\AndroidManifest.xml:20:5-22:41
MERGED from [androidx.core:core:1.1.0] C:\Users\kaikhura\.gradle\caches\transforms-2\files-2.1\292864c6d50f98870bb1ff3a00144dd1\core-1.1.0\AndroidManifest.xml:20:5-22:41
MERGED from [androidx.lifecycle:lifecycle-process:2.1.0] C:\Users\kaikhura\.gradle\caches\transforms-2\files-2.1\2687764cb8beca2d25d664cf653cf902\jetified-lifecycle-process-2.1.0\AndroidManifest.xml:20:5-44
MERGED from [androidx.lifecycle:lifecycle-process:2.1.0] C:\Users\kaikhura\.gradle\caches\transforms-2\files-2.1\2687764cb8beca2d25d664cf653cf902\jetified-lifecycle-process-2.1.0\AndroidManifest.xml:20:5-44
MERGED from [androidx.lifecycle:lifecycle-service:2.1.0] C:\Users\kaikhura\.gradle\caches\transforms-2\files-2.1\cf3c411e6080ce93b592497cf24b2be3\jetified-lifecycle-service-2.1.0\AndroidManifest.xml:20:5-44
MERGED from [androidx.lifecycle:lifecycle-service:2.1.0] C:\Users\kaikhura\.gradle\caches\transforms-2\files-2.1\cf3c411e6080ce93b592497cf24b2be3\jetified-lifecycle-service-2.1.0\AndroidManifest.xml:20:5-44
MERGED from [androidx.lifecycle:lifecycle-runtime:2.1.0] C:\Users\kaikhura\.gradle\caches\transforms-2\files-2.1\4a8b344f4640b5fb622ff22962abb590\lifecycle-runtime-2.1.0\AndroidManifest.xml:20:5-44
MERGED from [androidx.lifecycle:lifecycle-runtime:2.1.0] C:\Users\kaikhura\.gradle\caches\transforms-2\files-2.1\4a8b344f4640b5fb622ff22962abb590\lifecycle-runtime-2.1.0\AndroidManifest.xml:20:5-44
MERGED from [androidx.cursoradapter:cursoradapter:1.0.0] C:\Users\kaikhura\.gradle\caches\transforms-2\files-2.1\c8422266eb3949fc392dde601037e6a9\cursoradapter-1.0.0\AndroidManifest.xml:20:5-44
MERGED from [androidx.cursoradapter:cursoradapter:1.0.0] C:\Users\kaikhura\.gradle\caches\transforms-2\files-2.1\c8422266eb3949fc392dde601037e6a9\cursoradapter-1.0.0\AndroidManifest.xml:20:5-44
MERGED from [androidx.lifecycle:lifecycle-livedata:2.1.0] C:\Users\kaikhura\.gradle\caches\transforms-2\files-2.1\d9f361a810ffb5c9e1e8a64c9a678246\lifecycle-livedata-2.1.0\AndroidManifest.xml:20:5-44
MERGED from [androidx.lifecycle:lifecycle-livedata:2.1.0] C:\Users\kaikhura\.gradle\caches\transforms-2\files-2.1\d9f361a810ffb5c9e1e8a64c9a678246\lifecycle-livedata-2.1.0\AndroidManifest.xml:20:5-44
MERGED from [androidx.lifecycle:lifecycle-livedata-core:2.1.0] C:\Users\kaikhura\.gradle\caches\transforms-2\files-2.1\ee9809e4c795a1132d9d5129ea91b744\lifecycle-livedata-core-2.1.0\AndroidManifest.xml:20:5-44
MERGED from [androidx.lifecycle:lifecycle-livedata-core:2.1.0] C:\Users\kaikhura\.gradle\caches\transforms-2\files-2.1\ee9809e4c795a1132d9d5129ea91b744\lifecycle-livedata-core-2.1.0\AndroidManifest.xml:20:5-44
MERGED from [androidx.arch.core:core-runtime:2.1.0] C:\Users\kaikhura\.gradle\caches\transforms-2\files-2.1\e84dba64fa174c1169b684852347e97d\core-runtime-2.1.0\AndroidManifest.xml:20:5-22:41
MERGED from [androidx.arch.core:core-runtime:2.1.0] C:\Users\kaikhura\.gradle\caches\transforms-2\files-2.1\e84dba64fa174c1169b684852347e97d\core-runtime-2.1.0\AndroidManifest.xml:20:5-22:41
MERGED from [androidx.savedstate:savedstate:1.0.0] C:\Users\kaikhura\.gradle\caches\transforms-2\files-2.1\0a483328cf7c4d7674d6e1659f6a596f\jetified-savedstate-1.0.0\AndroidManifest.xml:20:5-22:41
MERGED from [androidx.savedstate:savedstate:1.0.0] C:\Users\kaikhura\.gradle\caches\transforms-2\files-2.1\0a483328cf7c4d7674d6e1659f6a596f\jetified-savedstate-1.0.0\AndroidManifest.xml:20:5-22:41
MERGED from [androidx.lifecycle:lifecycle-viewmodel:2.1.0] C:\Users\kaikhura\.gradle\caches\transforms-2\files-2.1\d0dd3c88c3f503352b37d2e227c26252\lifecycle-viewmodel-2.1.0\AndroidManifest.xml:20:5-44
MERGED from [androidx.lifecycle:lifecycle-viewmodel:2.1.0] C:\Users\kaikhura\.gradle\caches\transforms-2\files-2.1\d0dd3c88c3f503352b37d2e227c26252\lifecycle-viewmodel-2.1.0\AndroidManifest.xml:20:5-44
MERGED from [com.github.bumptech.glide:gifdecoder:4.10.0] C:\Users\kaikhura\.gradle\caches\transforms-2\files-2.1\cfff9cb6ddb439e7023a02a8daab7a04\jetified-gifdecoder-4.10.0\AndroidManifest.xml:5:5-7:41
MERGED from [com.github.bumptech.glide:gifdecoder:4.10.0] C:\Users\kaikhura\.gradle\caches\transforms-2\files-2.1\cfff9cb6ddb439e7023a02a8daab7a04\jetified-gifdecoder-4.10.0\AndroidManifest.xml:5:5-7:41
MERGED from [androidx.versionedparcelable:versionedparcelable:1.1.0] C:\Users\kaikhura\.gradle\caches\transforms-2\files-2.1\4f3e7548f91a047ff570cd1e2d2855ce\versionedparcelable-1.1.0\AndroidManifest.xml:20:5-22:41
MERGED from [androidx.versionedparcelable:versionedparcelable:1.1.0] C:\Users\kaikhura\.gradle\caches\transforms-2\files-2.1\4f3e7548f91a047ff570cd1e2d2855ce\versionedparcelable-1.1.0\AndroidManifest.xml:20:5-22:41
MERGED from [androidx.interpolator:interpolator:1.0.0] C:\Users\kaikhura\.gradle\caches\transforms-2\files-2.1\70b0769dfbc9a8d3ada87db0494132c4\interpolator-1.0.0\AndroidManifest.xml:20:5-44
MERGED from [androidx.interpolator:interpolator:1.0.0] C:\Users\kaikhura\.gradle\caches\transforms-2\files-2.1\70b0769dfbc9a8d3ada87db0494132c4\interpolator-1.0.0\AndroidManifest.xml:20:5-44
INJECTED from C:\Users\kaikhura\Documents\AndroidStudioProject\USBWorkspace\OfficeInformation\app\src\main\AndroidManifest.xml
INJECTED from C:\Users\kaikhura\Documents\AndroidStudioProject\USBWorkspace\OfficeInformation\app\src\main\AndroidManifest.xml
	android:targetSdkVersion
		INJECTED from C:\Users\kaikhura\Documents\AndroidStudioProject\USBWorkspace\OfficeInformation\app\src\main\AndroidManifest.xml
		ADDED from C:\Users\kaikhura\Documents\AndroidStudioProject\USBWorkspace\OfficeInformation\app\src\main\AndroidManifest.xml
		INJECTED from C:\Users\kaikhura\Documents\AndroidStudioProject\USBWorkspace\OfficeInformation\app\src\main\AndroidManifest.xml
	android:minSdkVersion
		INJECTED from C:\Users\kaikhura\Documents\AndroidStudioProject\USBWorkspace\OfficeInformation\app\src\main\AndroidManifest.xml
		ADDED from C:\Users\kaikhura\Documents\AndroidStudioProject\USBWorkspace\OfficeInformation\app\src\main\AndroidManifest.xml
		INJECTED from C:\Users\kaikhura\Documents\AndroidStudioProject\USBWorkspace\OfficeInformation\app\src\main\AndroidManifest.xml
provider#androidx.lifecycle.ProcessLifecycleOwnerInitializer
ADDED from [androidx.lifecycle:lifecycle-process:2.1.0] C:\Users\kaikhura\.gradle\caches\transforms-2\files-2.1\2687764cb8beca2d25d664cf653cf902\jetified-lifecycle-process-2.1.0\AndroidManifest.xml:23:9-27:43
	android:authorities
		ADDED from [androidx.lifecycle:lifecycle-process:2.1.0] C:\Users\kaikhura\.gradle\caches\transforms-2\files-2.1\2687764cb8beca2d25d664cf653cf902\jetified-lifecycle-process-2.1.0\AndroidManifest.xml:25:13-69
	android:multiprocess
		ADDED from [androidx.lifecycle:lifecycle-process:2.1.0] C:\Users\kaikhura\.gradle\caches\transforms-2\files-2.1\2687764cb8beca2d25d664cf653cf902\jetified-lifecycle-process-2.1.0\AndroidManifest.xml:27:13-40
	android:exported
		ADDED from [androidx.lifecycle:lifecycle-process:2.1.0] C:\Users\kaikhura\.gradle\caches\transforms-2\files-2.1\2687764cb8beca2d25d664cf653cf902\jetified-lifecycle-process-2.1.0\AndroidManifest.xml:26:13-37
	android:name
		ADDED from [androidx.lifecycle:lifecycle-process:2.1.0] C:\Users\kaikhura\.gradle\caches\transforms-2\files-2.1\2687764cb8beca2d25d664cf653cf902\jetified-lifecycle-process-2.1.0\AndroidManifest.xml:24:13-79
